"""Content/Topics"" terms","Mapping to Starter Pack "" Topics"""
Biodiversity ,Natural Resources and the Environment - Biodiversity
Carbon cycle ,Climate Change - Carbon
Climate ,Meteorology and Weather - Climate
Climate Change ,Climate Change
Coral Reefs ,Natural Resources and the Environment - Reefs
Crops ,"Agriculture, Forestry and Fishing - Crops"
Earthquakes ,Disaster Risk Management - Earthquake
Ecosystem ,Natural Resources and the Environment - Ecology and Ecosystems
Fauna ,Natural Resources and the Environment - Wildlife
Fish ,"Agriculture, Forestry and Fishing - Fisheries"
Floods ,Disaster Risk Management - Flood
Flora ,Natural Resources and the Environment - Vegetation
Greenhouse gases,Climate Change - Greenhouse gases
Landslides ,Disaster Risk Management - Landslide
Mammals ,Natural Resources and the Environment - Wildlife
Mangroves ,Natural Resources and the Environment - Vegetation; Natural Resources and the Environment - Coastal zone
Other ,
Plant growth ,Natural Resources and the Environment - Vegetation
Tides ,Meteorology and Weather - Tides
Tsunamis ,Disaster Risk Management - Tsunami
Volcanoes ,Disaster Risk Management - Volcanic eruption
Water cycle ,Water
weather,Meteorology and Weather - Weather