NAB Portal,"(EDITED) Equivalent in Starter Pack ""Contact Type"" vocabulary","Equivalent in Starter Pack ""Contact Type"" vocabulary"
Government Agency/Policy Maker,"Governmental (Policy maker, civil service etc)",Governmental
Non Government Organisation (NGO),NGO (Community Group etc),NGO
Student,Student,Student
Grade School Student (yr 1-12),Student,Student
Tertiary Student,Student,Student
Curriculum Developers & Teachers,"Academic (Teachers, research etc)",Academic
Development Partner Staff,,none
Workshop Contact,,none
Crop Agency Staff,"CROP (SPC, SPREP, PIFS, USP, FFA,SPTO, PIDP, PPA, PASO)",CROP
Consultant/Technical Advisor,Consultant (Technical Advisor),Consultant
Focal Point,,none
Organisation Staff,,none
Administration contact,,none
Government Agency/Policy Maker,"Governmental (Policy maker, civil service etc)",Governmental
Non Governemental Organisation,NGO (Community Group etc),NGO
National Contact,,none
Other,,none