NAB Portal,Equivalent in Starter Pack
Community Awareness,Community awareness
Disaster Response,Disaster Response
Formal Education Program,Formal Education Program
Funding - Small Grants,Funding - Small Grants
Informal Training Courses,Informal Training Courses
Other,Other
Pilot / Trial / Demonstration Project,Pilot / Trial / Demonstration Project
Planning and Governance,Planning and Governance
Policy Support,Policy Support
Research,Research
Service Delivery - Implementation,
Statistical Information - Data Collection,
Technical Assistance & Expert Advice,
Vulnerability Assessment,