<?xml version="1.0" encoding="utf-8"?>
<!-- Generator: Adobe Illustrator 16.0.4, SVG Export Plug-In . SVG Version: 6.00 Build 0)  -->
<!DOCTYPE svg PUBLIC "-//W3C//DTD SVG 1.1//EN" "http://www.w3.org/Graphics/SVG/1.1/DTD/svg11.dtd">
<svg version="1.1" id="Layer_1" xmlns="http://www.w3.org/2000/svg" xmlns:xlink="http://www.w3.org/1999/xlink" x="0px" y="0px"
	 width="1440px" height="96px" viewBox="0 0 1440 96" enable-background="new 0 0 1440 96" xml:space="preserve">
<polygon fill="#FCFAFA" points="1123,96 1385,96 1279.5,43.5 "/>
<path fill="none" d="M19.868,99.934"/>
<path d="M1121.811,87.262"/>
<path fill="#0090b2" d="M1384,52c0,0-33.393-1.915-61.877-9.545S1278.5,0,1278.5,0s-70.814,52.172-156.389,52.172C1118.082,52.172,0,52,0,52v35
	c0,0,1118,0.205,1122,0.205c86,0,156.5-52.205,156.5-52.205s15.139,34.825,43.623,42.455S1384,87,1384,87h56V52H1384z"/>
<path fill="#75D5EE" d="M1384,87c0,0-33.393-1.915-61.877-9.545S1278.5,35,1278.5,35s-70.5,52.262-156.689,52.262
	C1117.857,87.262,0,87,0,87v9c0,0,1118.068,0,1122.068,0c86,0,156.432-52,156.432-52s15.139,34.825,43.623,42.455S1384,96,1384,96
	h56v-9H1384z"/>
</svg>
